<svg width="54px" height="52px" viewBox="0 0 54 52" version="1.1" xmlns="http://www.w3.org/2000/svg" xmlns:xlink="http://www.w3.org/1999/xlink">
    <!-- Generator: Sketch 58 (84663) - https://sketch.com -->
    <title>Group 22</title>
    <desc>Created with Sketch.</desc>
    <g id="Final" stroke="none" stroke-width="1" fill="none" fill-rule="evenodd">
        <g id="Home-V2" transform="translate(-212.000000, -1442.000000)">
            <g id="Group-22" transform="translate(212.000000, 1442.000000)">
                <g id="Group-8"></g>
                <rect id="Rectangle-Copy-9" fill="#D7D4DA" x="9" y="7" width="45" height="45"></rect>
                <rect id="Rectangle-Copy-7" stroke="#454149" stroke-width="4" fill="#FFB12F" x="2" y="2" width="41" height="41"></rect>
                <polyline id="Path-6-Copy-2" stroke="#454149" stroke-width="4" transform="translate(29.214661, 23.000000) rotate(-180.000000) translate(-29.214661, -23.000000) " points="33.2146609 15 25.2146609 22.6643738 33.2146609 31"></polyline>
                <path d="M33.2146609,22.75 L11.2146609,22.75" id="Path-7-Copy-2" stroke="#454149" stroke-width="4"></path>
            </g>
        </g>
    </g>
</svg>
